{
  "project_info": {
    "project_number": "909040659840",
    "firebase_url": "https://poker-profile.firebaseio.com",
    "project_id": "poker-profile",
    "storage_bucket": "poker-profile.appspot.com"
  },
  "client": [
    {
      "client_info": {
        "mobilesdk_app_id": "1:909040659840:android:3f28996f69996dc1",
        "android_client_info": {
          "package_name": "com.pokerprofile"
        }
      },
      "oauth_client": [
        {
          "client_id": "909040659840-drfg75u5mgngedbeepbn2909vaare1ns.apps.googleusercontent.com",
          "client_type": 3
        }
      ],
      "api_key": [
        {
          "current_key": "AIzaSyBnQWbBkqTkEugJhYM-elHgT2VQRg2uqLs"
        }
      ],
      "services": {
        "analytics_service": {
          "status": 1
        },
        "appinvite_service": {
          "status": 1,
          "other_platform_oauth_client": []
        },
        "ads_service": {
          "status": 2
        }
      }
    },
    {
      "client_info": {
        "mobilesdk_app_id": "1:909040659840:android:3518bd86f87d0a90",
        "android_client_info": {
          "package_name": "profile.poker.com.pokerprofile"
        }
      },
      "oauth_client": [
        {
          "client_id": "909040659840-ejmhm8h6t75vgg9t8t9lnroru68mha2f.apps.googleusercontent.com",
          "client_type": 1,
          "android_info": {
            "package_name": "profile.poker.com.pokerprofile",
            "certificate_hash": "2b7eef362c0bc45f406251d8eab98d5401331e08"
          }
        },
        {
          "client_id": "909040659840-drfg75u5mgngedbeepbn2909vaare1ns.apps.googleusercontent.com",
          "client_type": 3
        }
      ],
      "api_key": [
        {
          "current_key": "AIzaSyBnQWbBkqTkEugJhYM-elHgT2VQRg2uqLs"
        }
      ],
      "services": {
        "analytics_service": {
          "status": 1
        },
        "appinvite_service": {
          "status": 2,
          "other_platform_oauth_client": [
            {
              "client_id": "909040659840-drfg75u5mgngedbeepbn2909vaare1ns.apps.googleusercontent.com",
              "client_type": 3
            }
          ]
        },
        "ads_service": {
          "status": 2
        }
      }
    }
  ],
  "configuration_version": "1"
}